…
wf_fit |> glance()
```

    ## # A tibble: 1 × 12
    ##   r.squared adj.r.squared sigma statistic  p.value    df logLik   AIC    BIC
    ##       <dbl>         <dbl> <dbl>     <dbl>    <dbl> <dbl>  <dbl> <dbl>  <dbl>
    ## 1     0.237         0.182  13.1      4.29 5.32e-29    81 -4746. 9658. 10081.
    ## # ℹ 3 more variables: deviance <dbl>, df.residual <int>, nobs <int>

``` r
wf_fit |> tidy()
```

    ## # A tibble: 92 × 5
    ##    term                 estimate std.error statistic  p.value
    ##    <chr>                   <dbl>     <dbl>     <dbl>    <dbl>
    ##  1 (Intercept)          6.08     19.3          0.315  0.753  
    ##  2 flow                -0.000892  0.000426    -2.09   0.0366 
    ##  3 turbidity            1.51      0.613        2.47   0.0137 
    ##  4 temperature         -0.0393    0.0187      -2.10   0.0363 
    ##  5 instream_cover_A     7.10      5.10         1.39   0.164  
    ##  6 instream_cover_AE   NA        NA           NA     NA      
    ##  7 instream_cover_B    15.0       5.05         2.97   0.00309
    ##  8 instream_cover_BC    9.18      6.21         1.48   0.140  
    ##  9 instream_cover_BCD   9.03      5.85         1.54   0.123  
    ## 10 instream_cover_BCDE 16.0       5.49         2.91   0.00371
    ## # ℹ 82 more rows
…
